%YAML 1.1
%TAG !u! tag:unity3d.com,2011:
--- !u!1001 &3122397290850470220
PrefabInstance:
  m_ObjectHideFlags: 0
  serializedVersion: 2
  m_Modification:
    m_TransformParent: {fileID: 0}
    m_Modifications:
    - target: {fileID: 100000, guid: 4020b43f8accddb4bb9bd1f3b3fddcf7, type: 3}
      propertyPath: m_Name
      value: super_sail Variant
      objectReference: {fileID: 0}
    - target: {fileID: 400000, guid: 4020b43f8accddb4bb9bd1f3b3fddcf7, type: 3}
      propertyPath: m_RootOrder
      value: 0
      objectReference: {fileID: 0}
    - target: {fileID: 400000, guid: 4020b43f8accddb4bb9bd1f3b3fddcf7, type: 3}
      propertyPath: m_LocalScale.x
      value: 0.016
      objectReference: {fileID: 0}
    - target: {fileID: 400000, guid: 4020b43f8accddb4bb9bd1f3b3fddcf7, type: 3}
      propertyPath: m_LocalScale.y
      value: 0.016
      objectReference: {fileID: 0}
    - target: {fileID: 400000, guid: 4020b43f8accddb4bb9bd1f3b3fddcf7, type: 3}
      propertyPath: m_LocalScale.z
      value: 0.016
      objectReference: {fileID: 0}
    - target: {fileID: 400000, guid: 4020b43f8accddb4bb9bd1f3b3fddcf7, type: 3}
      propertyPath: m_LocalPosition.x
      value: 0
      objectReference: {fileID: 0}
    - target: {fileID: 400000, guid: 4020b43f8accddb4bb9bd1f3b3fddcf7, type: 3}
      propertyPath: m_LocalPosition.y
      value: 0
      objectReference: {fileID: 0}
    - target: {fileID: 400000, guid: 4020b43f8accddb4bb9bd1f3b3fddcf7, type: 3}
      propertyPath: m_LocalPosition.z
      value: 0
      objectReference: {fileID: 0}
    - target: {fileID: 400000, guid: 4020b43f8accddb4bb9bd1f3b3fddcf7, type: 3}
      propertyPath: m_LocalRotation.w
      value: 1
      objectReference: {fileID: 0}
    - target: {fileID: 400000, guid: 4020b43f8accddb4bb9bd1f3b3fddcf7, type: 3}
      propertyPath: m_LocalRotation.x
      value: 0
      objectReference: {fileID: 0}
    - target: {fileID: 400000, guid: 4020b43f8accddb4bb9bd1f3b3fddcf7, type: 3}
      propertyPath: m_LocalRotation.y
      value: -0
      objectReference: {fileID: 0}
    - target: {fileID: 400000, guid: 4020b43f8accddb4bb9bd1f3b3fddcf7, type: 3}
      propertyPath: m_LocalRotation.z
      value: -0
      objectReference: {fileID: 0}
    - target: {fileID: 400000, guid: 4020b43f8accddb4bb9bd1f3b3fddcf7, type: 3}
      propertyPath: m_LocalEulerAnglesHint.x
      value: 0
      objectReference: {fileID: 0}
    - target: {fileID: 400000, guid: 4020b43f8accddb4bb9bd1f3b3fddcf7, type: 3}
      propertyPath: m_LocalEulerAnglesHint.y
      value: 0
      objectReference: {fileID: 0}
    - target: {fileID: 400000, guid: 4020b43f8accddb4bb9bd1f3b3fddcf7, type: 3}
      propertyPath: m_LocalEulerAnglesHint.z
      value: 0
      objectReference: {fileID: 0}
    - target: {fileID: 2300000, guid: 4020b43f8accddb4bb9bd1f3b3fddcf7, type: 3}
      propertyPath: m_Materials.Array.data[0]
      value: 
      objectReference: {fileID: 2100000, guid: 0307df93a7a763f4aa664fc459c3041d, type: 2}
    m_RemovedComponents: []
  m_SourcePrefab: {fileID: 100100000, guid: 4020b43f8accddb4bb9bd1f3b3fddcf7, type: 3}
