%YAML 1.1
%TAG !u! tag:unity3d.com,2011:
--- !u!1001 &3839775652524121171
PrefabInstance:
  m_ObjectHideFlags: 0
  serializedVersion: 2
  m_Modification:
    m_TransformParent: {fileID: 0}
    m_Modifications:
    - target: {fileID: 100000, guid: 4ec936a9b1599694cbdea7af2df0115d, type: 3}
      propertyPath: m_Name
      value: white_fang (1) Variant
      objectReference: {fileID: 0}
    - target: {fileID: 400000, guid: 4ec936a9b1599694cbdea7af2df0115d, type: 3}
      propertyPath: m_RootOrder
      value: 0
      objectReference: {fileID: 0}
    - target: {fileID: 400000, guid: 4ec936a9b1599694cbdea7af2df0115d, type: 3}
      propertyPath: m_LocalPosition.x
      value: -0.4033394
      objectReference: {fileID: 0}
    - target: {fileID: 400000, guid: 4ec936a9b1599694cbdea7af2df0115d, type: 3}
      propertyPath: m_LocalPosition.y
      value: -0.3983631
      objectReference: {fileID: 0}
    - target: {fileID: 400000, guid: 4ec936a9b1599694cbdea7af2df0115d, type: 3}
      propertyPath: m_LocalPosition.z
      value: -23.527077
      objectReference: {fileID: 0}
    - target: {fileID: 400000, guid: 4ec936a9b1599694cbdea7af2df0115d, type: 3}
      propertyPath: m_LocalRotation.w
      value: 1
      objectReference: {fileID: 0}
    - target: {fileID: 400000, guid: 4ec936a9b1599694cbdea7af2df0115d, type: 3}
      propertyPath: m_LocalRotation.x
      value: 0
      objectReference: {fileID: 0}
    - target: {fileID: 400000, guid: 4ec936a9b1599694cbdea7af2df0115d, type: 3}
      propertyPath: m_LocalRotation.y
      value: -0
      objectReference: {fileID: 0}
    - target: {fileID: 400000, guid: 4ec936a9b1599694cbdea7af2df0115d, type: 3}
      propertyPath: m_LocalRotation.z
      value: -0
      objectReference: {fileID: 0}
    - target: {fileID: 400000, guid: 4ec936a9b1599694cbdea7af2df0115d, type: 3}
      propertyPath: m_LocalEulerAnglesHint.x
      value: 0
      objectReference: {fileID: 0}
    - target: {fileID: 400000, guid: 4ec936a9b1599694cbdea7af2df0115d, type: 3}
      propertyPath: m_LocalEulerAnglesHint.y
      value: 0
      objectReference: {fileID: 0}
    - target: {fileID: 400000, guid: 4ec936a9b1599694cbdea7af2df0115d, type: 3}
      propertyPath: m_LocalEulerAnglesHint.z
      value: 0
      objectReference: {fileID: 0}
    - target: {fileID: 2300000, guid: 4ec936a9b1599694cbdea7af2df0115d, type: 3}
      propertyPath: m_Materials.Array.data[0]
      value: 
      objectReference: {fileID: 2100000, guid: 0307df93a7a763f4aa664fc459c3041d, type: 2}
    m_RemovedComponents: []
  m_SourcePrefab: {fileID: 100100000, guid: 4ec936a9b1599694cbdea7af2df0115d, type: 3}
